{
    "build-runtime": true,
    "id": "org.kde.Sdk",
    "id-platform": "org.kde.Platform",
    "branch": "5.12",
    "runtime": "org.freedesktop.Platform",
    "sdk": "org.freedesktop.Sdk",
    "runtime-version": "18.08",
    "sdk-extensions": ["org.freedesktop.Sdk.Debug", "org.freedesktop.Sdk.Locale", "org.freedesktop.Sdk.Docs"],
    "platform-extensions": ["org.freedesktop.Platform.Locale"],
    "inherit-extensions": [
        "org.freedesktop.Platform.GL",
        "org.freedesktop.Platform.Timezones",
        "org.freedesktop.Platform.GStreamer",
        "org.freedesktop.Platform.Icontheme",
        "org.freedesktop.Platform.VAAPI.Intel",
        "org.freedesktop.Platform.html5-codecs",
        "org.gtk.Gtk3theme"
    ],
    "inherit-sdk-extensions": [
        "org.freedesktop.Sdk.Extension"
    ],
    "add-extensions": {
        "org.kde.Sdk.Docs" : {
            "directory": "share/runtime/docs",
            "bundle": true,
            "autodelete": true,
            "no-autodownload": true
        },
        "org.kde.KStyle" : {
            "directory": "share/runtime/lib/plugins/",
            "subdirectories": true,
            "no-autodownload": true,
            "version": "5.12",
            "merge-dirs": "styles",
            "download-if": "active-gtk-theme"
        },
        "org.kde.PlatformTheme" : {
            "directory": "share/runtime/lib/plugins/",
            "subdirectories": true,
            "no-autodownload": true,
            "version": "5.12",
            "merge-dirs": "platformthemes",
            "//TODO": "This is currently only used for gnome platform plugin and should be its own extension point",
            "download-if": "on-xdg-desktop-GNOME;on-xdg-desktop-GNOME-classic"
        },
        "org.kde.PlatformInputContexts" : {
            "directory": "share/runtime/lib/plugins/",
            "subdirectories": true,
            "autodelete": true,
            "no-autodownload": true,
            "version": "5.12",
            "merge-dirs": "platforminputcontexts"
        },
        "org.kde.WaylandDecoration" : {
            "directory": "share/runtime/lib/plugins/",
            "subdirectories": true,
            "no-autodownload": true,
            "version": "5.12",
            "merge-dirs": "wayland-decoration-client",
            "//TODO": "This is currently only used for gnome platform plugin and should be its own extension point",
            "download-if": "on-xdg-desktop-GNOME;on-xdg-desktop-GNOME-classic"
        }
    },
    "finish-args": [
        "--env=GI_TYPELIB_PATH=/app/lib/girepository-1.0",
        "--env=GST_PLUGIN_PATH=/app/lib/gstreamer-1.0:/app/lib/@SDK_ARCH@-linux-gnu/extensions/gstreamer-1.0:/usr/lib/@SDK_ARCH@-linux-gnu/extensions/gstreamer-1.0",
        "--env=XDG_DATA_DIRS=/app/share:/usr/share:/usr/share/runtime/share:/run/host/share",
        "--env=QT_PLUGIN_PATH=/app/lib64/plugins:/app/lib/plugins:/usr/share/runtime/lib/plugins",
        "--env=QML2_IMPORT_PATH=/app/lib64/qml:/app/lib/qml",
        "--env=KDE_FORK_SLAVES=1",
        "--env=DCONF_USER_CONFIG_DIR=.config/dconf",
        "--filesystem=xdg-config/kdeglobals:ro",
        "--filesystem=xdg-run/dconf",
        "--filesystem=~/.config/dconf:ro",
        "--talk-name=com.canonical.AppMenu.Registrar",
        "--sdk=org.kde.Sdk//5.12",
        "--runtime=org.kde.Platform//5.12"
    ],
    "cleanup": [ "/man",
                 "/share/man",
                 "/lib/systemd",
                 "*.la"],
    "cleanup-commands": [ "/usr/libexec/freedesktop-post.sh" ],
    "cleanup-platform": [ "/share/runtime/docs",
                          "/include",
                          "/share/aclocal",
                          "/share/pkgconfig",
                          "/lib/pkgconfig",
                          "*.a",
                          "*.cmake"
                        ],
    "cleanup-platform-commands": [ "/usr/libexec/freedesktop-post.sh" ],
    "modules": [
        {
            "name": "qt5-qtbase",
            "cleanup-platform": [ "/bin", "/mkspecs" ],
            "build-options" : {
                "arch" : {
                    "x86_64" : {
                        "config-opts" : [
                            "-reduce-relocations", "-force-debug-info"
                        ]
                    },
                    "arm" : {
                        "config-opts" : [
                            "-no-reduce-relocations", "-optimize-size", "-opengl es2"
                        ]
                    },
                    "aarch64" : {
                        "config-opts" : [
                            "-no-reduce-relocations", "-optimize-size", "-opengl es2"
                        ]
                    }
                }
            },
            "config-opts": [ "-confirm-license", "-opensource",
                             "-shared",
                             "-platform", "linux-g++",
                             "-optimized-qmake",
                             "-nomake", "examples",
                             "-nomake", "tests",
                             "-system-harfbuzz",
                             "-system-sqlite",
                             "-accessibility",
                             "-dbus-linked",
                             "-fontconfig",
                             "-glib",
                             "-icu",
                             "-openssl-linked",
                             "-no-pch",
                             "-no-rpath",
                             "-no-directfb",
                             "-no-linuxfb",
                             "-no-kms",
                             "-no-cups",
                             "-system-proxies",
                             "-gtk",
                             "-no-use-gold-linker",

                             "-archdatadir", "/usr/lib/"
                           ],
            "sources": [
                {
                    "type": "archive",
                    "url": "http://download.qt.io/archive/qt/5.12/5.12.7/submodules/qtbase-everywhere-src-5.12.7.tar.xz",
                    "sha256": "6ab52649d74d7c1728cf4a6cf335d1142b3bf617d476e2857eb7961ef43f9f27"
                },
                {
                    "type": "patch",
                    "path": "patch/qtbase-avoid-hardcoding-kernel-version.patch"
                },
                {
                    "type": "patch",
                    "path": "patch/qtbase-use-wayland-on-gnome.patch"
                },
                {
                    "type": "shell",
                    "commands": [ "mv configure configure.qt" ]
                },
                {
                    "type": "script",
                    "commands": [
                        "processed=`sed -e 's/--/-/g ; s/=/ /g' <<< $@`",
                        "./configure.qt $processed"
                    ],
                    "dest-filename": "configure"
                }
            ]
        },
        {
            "name": "qt5-qtdeclarative",
            "buildsystem": "qmake",
            "cleanup-platform": [ "/bin", "/mkspecs", "lib/plugins/qmltooling" ],
            "sources": [
                {
                    "type": "archive",
                    "url": "http://download.qt.io/archive/qt/5.12/5.12.7/submodules/qtdeclarative-everywhere-src-5.12.7.tar.xz",
                    "sha256": "34b1d1ae5562f1d433e22c255ac1a37a2fb030ef05bf6123d4b9496644b686d3"
                }
            ]
        },
        {
            "name": "qt5-qttools",
            "buildsystem": "qmake",
            "cleanup-platform": [
                "/mkspecs",
                "/bin/assistant", "/bin/qhelpgenerator", "/bin/qcollectiongenerator", "/bin/qhelpconverter", "/bin/pixeltool", "/bin/designer",
                "/bin/lrelease", "/bin/lupdate", "/bin/lconvert", "/bin/linguist", "/bin/qdoc", "/bin/qtattributionsscanner",
                "/bin/qtplugininfo", "/bin/qtdiag", "/bin/qdbusviewer"
            ],
            "sources": [
                {
                    "type": "archive",
                    "url": "http://download.qt.io/archive/qt/5.12/5.12.7/submodules/qttools-everywhere-src-5.12.7.tar.xz",
                    "sha256": "e94991c7885c2650cefd71189873e45b1d64d6042e439a0a0d9652c191d3c777"
                }
            ]
        },
        {
            "name": "qt5-qtscript",
            "buildsystem": "qmake",
            "cleanup-platform": [ "/bin", "/mkspecs" ],
            "sources": [
                {
                    "type": "archive",
                    "url": "http://download.qt.io/archive/qt/5.12/5.12.7/submodules/qtscript-everywhere-src-5.12.7.tar.xz",
                    "sha256": "a18082ad338e2378cccab932045804ad3077ec924fed2efc59d4b726d622777c"
                }
            ]
        },
        {

            "name": "qt5-webchannel",
            "buildsystem": "qmake",
            "cleanup-platform": [ "/bin", "/mkspecs" ],
            "sources": [
                {
                    "type": "archive",
                    "url": "http://download.qt.io/archive/qt/5.12/5.12.7/submodules/qtwebchannel-everywhere-src-5.12.7.tar.xz",
                    "sha256": "2745d1703de1a749405727a74786184c950ba7465dc5d02e2f39f51635dbc8d7"
                }
            ]
        },
        {
            "name": "qt5-qtlocation",
            "buildsystem": "qmake",
            "cleanup-platform": [ "/bin", "/mkspecs" ],
            "sources": [
                {
                    "type": "archive",
                    "url": "http://download.qt.io/archive/qt/5.12/5.12.7/submodules/qtlocation-everywhere-src-5.12.7.tar.xz",
                    "sha256": "7ae231ca4de3c0915e92bb95440b0ddc7113790b1acb536c9394472e8dde2278"
                }
            ]
        },
        {
            "name": "qt5-qtwebengine",
            "buildsystem": "qmake",
            "cleanup-platform": [ "/bin", "/mkspecs" ],
            "config-opts": [ "--", "-system-ffmpeg",
                             "-webengine-proprietary-codecs",
                             "-webengine-icu",
                             "-webp" ],
            "modules": [
                {
                    "name": "pciutils",
                    "no-autogen": true,
                    "make-args": ["SHARED=no", "ZLIB=no", "PREFIX=/usr"],
                    "post-install": [
                        "make install-pcilib",
                        "make install-lib"
                    ],
                    "sources": [
                        { "type": "git", "url": "https://kernel.googlesource.com/pub/scm/utils/pciutils/pciutils", "branch": "v3.6.2" },
                        {
                            "type": "shell",
                            "commands": [
                                "sed -i 's@PREFIX=/usr/local@PREFIX=/usr@' Makefile"
                            ]
                        }
                    ]
                },
                {
                    "name": "opus",
                    "sources": [
                        { "type": "git", "url": "https://github.com/xiph/opus.git", "branch": "v1.2.1" }
                    ]
                }
            ],
            "sources": [
                {
                    "type": "archive",
                    "url": "http://download.qt.io/archive/qt/5.12/5.12.7/submodules/qtwebengine-everywhere-src-5.12.7.tar.xz",
                    "sha256": "caa5f257c3bc33c1d2fcb9b7cd414fd5c46e8eee8a103231ab28d592a0058621"
                },
                {
                    "type": "patch",
                    "path": "patch/qtwebengine-no-udev.patch"
                }
            ]
        },
        {
            "name": "qt5-qtsvg",
            "buildsystem": "qmake",
            "cleanup-platform": [ "/bin", "/mkspecs" ],
            "sources": [
                {
                    "type": "archive",
                    "url": "http://download.qt.io/archive/qt/5.12/5.12.7/submodules/qtsvg-everywhere-src-5.12.7.tar.xz",
                    "sha256": "46243e6c425827ab4e91fbe31567f683ff14cb01d12f9f7543a83a571228ef8f"
                }
            ]
        },
        {
            "name": "qt5-qtx11extras",
            "buildsystem": "qmake",
            "cleanup-platform": [ "/bin", "/mkspecs" ],
            "sources": [
                {
                    "type": "archive",
                    "url": "http://download.qt.io/archive/qt/5.12/5.12.7/submodules/qtx11extras-everywhere-src-5.12.7.tar.xz",
                    "sha256": "5f3991f557116034731ed059895e73b5d34e1b22e85536a8eb6e92350b3a1d6b"
                }
            ]
        },
        {
            "name": "qt5-qtmultimedia",
            "buildsystem": "qmake",
            "cleanup-platform": [ "/bin", "/mkspecs" ],
            "sources": [
                {
                    "type": "archive",
                    "url": "http://download.qt.io/archive/qt/5.12/5.12.7/submodules/qtmultimedia-everywhere-src-5.12.7.tar.xz",
                    "sha256": "9f580e8962ca6a09608570e77b38d7c3f71d344ff6de1c39bc6905226b679570"
                }
            ]
        },
        {
            "name": "qt5-qtsensors",
            "buildsystem": "qmake",
            "cleanup-platform": [ "/bin", "/mkspecs" ],
            "sources": [
                {
                    "type": "archive",
                    "url": "http://download.qt.io/archive/qt/5.12/5.12.7/submodules/qtsensors-everywhere-src-5.12.7.tar.xz",
                    "sha256": "59dba4c0bc72846d938e0862f14d8064fb664d893f270a41d3abf4e871290ef5"
                }
            ]
        },
        {
            "name": "qt5-qtquickcontrols",
            "buildsystem": "qmake",
            "cleanup-platform": [ "/bin", "/mkspecs" ],
            "sources": [
                {
                    "type": "archive",
                    "url": "http://download.qt.io/archive/qt/5.12/5.12.7/submodules/qtquickcontrols-everywhere-src-5.12.7.tar.xz",
                    "sha256": "c48d96a187ff924f1ae4b4abe9cc073adeb06a6c2b07c4191aa595ad22df2c99"
                }
            ]
        },
        {
            "name": "qt5-qtquickcontrols2",
            "buildsystem": "qmake",
            "cleanup-platform": [ "/bin", "/mkspecs" ],
            "sources": [
                {
                    "type": "archive",
                    "url": "http://download.qt.io/archive/qt/5.12/5.12.7/submodules/qtquickcontrols2-everywhere-src-5.12.7.tar.xz",
                    "sha256": "5cab0712f946405db269851b96cca02ef8ba98f3ee2c4fa9c0877dba3808a970"
                }
            ]
        },
        {
            "name": "qt5-qtgraphicaleffects",
            "buildsystem": "qmake",
            "cleanup-platform": [ "/bin", "/mkspecs" ],
            "sources": [
                {
                    "type": "archive",
                    "url": "http://download.qt.io/archive/qt/5.12/5.12.7/submodules/qtgraphicaleffects-everywhere-src-5.12.7.tar.xz",
                    "sha256": "ded0327624a13bf7fab07e5fe762473194ed898b0442ef9325498e41c8c077ef"
                }
            ]
        },
        {
            "name": "qt5-qtxmlpatterns",
            "buildsystem": "qmake",
            "cleanup-platform": [ "/bin", "/mkspecs" ],
            "sources": [
                {
                    "type": "archive",
                    "url": "http://download.qt.io/archive/qt/5.12/5.12.7/submodules/qtxmlpatterns-everywhere-src-5.12.7.tar.xz",
                    "sha256": "76977bc834e6c6118ae2bab31e68ae54843358936b03e432d919ad15cd2184d0"
                }
            ]
        },
        {
            "name": "qt5-qtimageformats",
            "buildsystem": "qmake",
            "cleanup-platform": [ "/bin", "/mkspecs" ],
            "sources": [
                {
                    "type": "archive",
                    "url": "http://download.qt.io/archive/qt/5.12/5.12.7/submodules/qtimageformats-everywhere-src-5.12.7.tar.xz",
                    "sha256": "330d1c29a135c44bb36b5ffc2ba4f8915dbc446d5d75563523ebcfd373617858"
                }
            ]
        },
        {
            "name": "qt5-connectivity",
            "buildsystem": "qmake",
            "cleanup-platform": [ "/bin", "/mkspecs" ],
            "sources": [
                {
                    "type": "archive",
                    "url": "http://download.qt.io/archive/qt/5.12/5.12.7/submodules/qtconnectivity-everywhere-src-5.12.7.tar.xz",
                    "sha256": "10f1c6727aedc375a1bfab4bb33fd2111bf2c1dfc19049e361c0f58608ea22da"
                }
            ]
        },
        {
            "name": "qt5-wayland",
            "buildsystem": "qmake",
            "cleanup-platform": [ "/bin", "/mkspecs" ],
            "sources": [
                {
                    "type": "archive",
                    "url": "http://download.qt.io/archive/qt/5.12/5.12.7/submodules/qtwayland-everywhere-src-5.12.7.tar.xz",
                    "sha256": "fa9c6aa84ddc0334b44f0f47d69569e496e5d9f3a1ed67aab42214854d2351c4"
                },
                {
                    "type": "patch",
                    "path": "patch/qtwayland-do-not-redraw-decorations-everytime.patch"
                },
                {
                    "type": "patch",
                    "path": "patch/qtwayland-use-gnome-platform-theme-on-gnome-based-desktops.patch"
                }
            ]
        },
        {
            "name": "qt5-virtualkeyboard",
            "buildsystem": "qmake",
            "cleanup-platform": [ "/bin", "/mkspecs" ],
            "sources": [
                {
                    "type": "archive",
                    "url": "http://download.qt.io/archive/qt/5.12/5.12.7/submodules/qtvirtualkeyboard-everywhere-src-5.12.7.tar.xz",
                    "sha256": "04699888d6e1e8e04db8043a37212fa3b1fcb1b23aef41c2f3ae7a4278e34d2c"
                }
            ]
        },
        {
            "name": "qt5-qtserialport",
            "buildsystem": "qmake",
            "cleanup-platform": [ "/bin", "/mkspecs" ],
            "sources": [
                {
                    "type": "archive",
                    "url": "http://download.qt.io/archive/qt/5.12/5.12.7/submodules/qtserialport-everywhere-src-5.12.7.tar.xz",
                    "sha256": "77d0def93078fb5d9de6faa9ccff05cce5b934899e856b04bcf7f721a4e190be"
                }
            ]
        },
        {
            "name": "qt5-qtwebsockets",
            "buildsystem": "qmake",
            "cleanup-platform": [ "/bin", "/mkspecs" ],
            "sources": [
                {
                    "type": "archive",
                    "url": "http://download.qt.io/archive/qt/5.12/5.12.7/submodules/qtwebsockets-everywhere-src-5.12.7.tar.xz",
                    "sha256": "f00bfbaa73e60a4c3371e729167d7acb465cbb2db32535d745982cab21fed61e"
                }
            ]
        },
        {
            "name": "qt5-qtcharts",
            "buildsystem": "qmake",
            "cleanup-platform": [ "/bin", "/mkspecs" ],
            "sources": [
                {
                    "type": "archive",
                    "url": "http://download.qt.io/archive/qt/5.12/5.12.7/submodules/qtcharts-everywhere-src-5.12.7.tar.xz",
                    "sha256": "14dbdb5bb18d774e3b7ac3042a3f349080ab42c2588527ff04123df1c9ccaa3d"
                }
            ]
        },
        {
            "name": "qt5-qt3d",
            "buildsystem": "qmake",
            "cleanup-platform": [ "/bin", "/mkspecs" ],
            "sources": [
                {
                    "type": "archive",
                    "url": "http://download.qt.io/archive/qt/5.12/5.12.7/submodules/qt3d-everywhere-src-5.12.7.tar.xz",
                    "sha256": "cf34ce99a2592270abbf32a13fa824d99c76412fc493a3f1c37e37892b198baf"
                }
            ]
        },
        {
            "name": "qt5-qtspeech",
            "buildsystem": "qmake",
            "cleanup-platform": [ "/bin", "/mkspecs" ],
            "sources": [
                {
                    "type": "archive",
                    "url": "http://download.qt.io/archive/qt/5.12/5.12.7/submodules/qtspeech-everywhere-src-5.12.7.tar.xz",
                    "sha256": "27ae7b2c7073377a617f32b0f4adfc1807774f02d13469ed4bcd282799cf878a"
                }
            ]
        },
        {
            "name": "qt5-qtnetworkauth",
            "buildsystem": "qmake",
            "cleanup-platform": [ "/bin", "/mkspecs" ],
            "sources": [
                {
                    "type": "archive",
                    "url": "http://download.qt.io/archive/qt/5.12/5.12.7/submodules/qtnetworkauth-everywhere-src-5.12.7.tar.xz",
                    "sha256": "ea122d86a960863bbe0e0f4b5a12f0a376455beed3c26f1b61926e065b366abd"
                }
            ]
        },
        {
            "name": "qt5-qtgamepad",
            "buildsystem": "qmake",
            "cleanup-platform": [ "/bin", "/mkspecs" ],
            "sources": [
                {
                    "type": "archive",
                    "url": "http://download.qt.io/archive/qt/5.12/5.12.7/submodules/qtgamepad-everywhere-src-5.12.7.tar.xz",
                    "sha256": "e1ebc5f3593c5234724663106790fbf1831d4ac8ea50a9d9805d2dd0a1c5b3b3"
                }
            ]
        },

        {
            "name": "libdbusmenuqt",
            "buildsystem": "cmake-ninja",
            "config-opts": ["-DENABLE_TESTING=OFF", "-DWITH_DOC=OFF"],
            "sources": [
                { "type": "bzr", "url": "http://bazaar.launchpad.net/~dbusmenu-team/libdbusmenu-qt/trunk/", "revision": "0.9.3+16.04.20160218-0ubuntu1" }
            ]
        },

        {
            "name": "extra-cmake-modules",
            "cleanup-platform": ["*"],
            "buildsystem": "cmake-ninja",
            "config-opts": [ "-DENABLE_TESTING=OFF" ],
            "sources": [ { "type": "git", "url": "git://anongit.kde.org/extra-cmake-modules.git", "branch": "v5.66.0" } ]
        },
        {
            "name": "kwidgetsaddons",
            "config-opts": [ "-DENABLE_TESTING=OFF" ],
            "buildsystem": "cmake-ninja",
            "sources": [ { "type": "git", "url": "git://anongit.kde.org/kwidgetsaddons.git", "branch": "v5.66.0" } ]
        },
        {
            "name": "ki18n",
            "config-opts": [ "-DENABLE_TESTING=OFF" ],
            "buildsystem": "cmake-ninja",
            "sources": [ { "type": "git", "url": "git://anongit.kde.org/ki18n.git", "branch": "v5.66.0" } ]
        },
        {
            "name": "kconfig",
            "config-opts": [ "-DENABLE_TESTING=OFF" ],
            "buildsystem": "cmake-ninja",
            "sources": [ { "type": "git", "url": "git://anongit.kde.org/kconfig.git", "branch": "v5.66.0" } ]
        },
        {
            "name": "attica",
            "config-opts": [ "-DENABLE_TESTING=OFF" ],
            "buildsystem": "cmake-ninja",
            "sources": [ { "type": "git", "url": "git://anongit.kde.org/attica.git", "branch": "v5.66.0" } ]
        },
        {
            "name": "kguiaddons",
            "config-opts": [ "-DENABLE_TESTING=OFF" ],
            "buildsystem": "cmake-ninja",
            "sources": [ { "type": "git", "url": "git://anongit.kde.org/kguiaddons.git", "branch": "v5.66.0" } ]
        },
        {
            "name": "kcoreaddons",
            "config-opts": [ "-DENABLE_TESTING=OFF" ],
            "buildsystem": "cmake-ninja",
            "sources": [ { "type": "git", "url": "git://anongit.kde.org/kcoreaddons.git", "branch": "v5.66.0" } ]
        },
        {
            "name": "kauth",
            "config-opts": [ "-DENABLE_TESTING=OFF" ],
            "buildsystem": "cmake-ninja",
            "sources": [ { "type": "git", "url": "git://anongit.kde.org/kauth.git", "branch": "v5.66.0" } ]
        },
        {
            "name": "karchive",
            "config-opts": ["-DENABLE_TESTING=OFF", "-DCMAKE_DISABLE_FIND_PACKAGE_Qt5Test=TRUE"],
            "buildsystem": "cmake-ninja",
            "sources": [ { "type": "git", "url": "git://anongit.kde.org/karchive.git", "branch": "v5.66.0" } ]
        },
        {
            "name": "kcodecs",
            "config-opts": [ "-DENABLE_TESTING=OFF" ],
            "buildsystem": "cmake-ninja",
            "sources": [ { "type": "git", "url": "git://anongit.kde.org/kcodecs.git", "branch": "v5.66.0" } ]
        },
        {
            "name": "kconfigwidgets",
            "config-opts": [ "-DENABLE_TESTING=OFF" ],
            "buildsystem": "cmake-ninja",
            "sources": [ { "type": "git", "url": "git://anongit.kde.org/kconfigwidgets.git", "branch": "v5.66.0" } ]
        },
        {
            "name": "kitemviews",
            "config-opts": [ "-DENABLE_TESTING=OFF" ],
            "buildsystem": "cmake-ninja",
            "sources": [ { "type": "git", "url": "git://anongit.kde.org/kitemviews.git", "branch": "v5.66.0" } ]
        },
        {
            "name": "kiconthemes",
            "config-opts": [ "-DENABLE_TESTING=OFF" ],
            "buildsystem": "cmake-ninja",
            "sources": [ { "type": "git", "url": "git://anongit.kde.org/kiconthemes.git", "branch": "v5.66.0" } ]
        },
        {
            "name": "kwindowsystem",
            "config-opts": [ "-DENABLE_TESTING=OFF" ],
            "buildsystem": "cmake-ninja",
            "sources": [ { "type": "git", "url": "git://anongit.kde.org/kwindowsystem.git", "branch": "v5.66.0" } ]
        },
        {
            "name": "kcrash",
            "config-opts": [ "-DENABLE_TESTING=OFF" ],
            "buildsystem": "cmake-ninja",
            "sources": [ { "type": "git", "url": "git://anongit.kde.org/kcrash.git", "branch": "v5.66.0" } ]
        },
        {
            "name": "kdbusaddons",
            "config-opts": [ "-DENABLE_TESTING=OFF" ],
            "buildsystem": "cmake-ninja",
            "sources": [ { "type": "git", "url": "git://anongit.kde.org/kdbusaddons.git", "branch": "v5.66.0" } ]
        },
        {
            "name": "kservice",
            "config-opts": [ "-DENABLE_TESTING=OFF" ],
            "buildsystem": "cmake-ninja",
            "builddir": true,
            "sources": [ { "type": "git", "url": "git://anongit.kde.org/kservice.git", "branch": "v5.66.0" } ]
        },
        {
            "name": "kglobalaccel",
            "config-opts": [ "-DENABLE_TESTING=OFF" ],
            "buildsystem": "cmake-ninja",
            "sources": [ { "type": "git", "url": "git://anongit.kde.org/kglobalaccel.git", "branch": "v5.66.0" } ]
        },
        {
            "name": "sonnet",
            "config-opts": [ "-DENABLE_TESTING=OFF" ],
            "buildsystem": "cmake-ninja",
            "sources": [ { "type": "git", "url": "git://anongit.kde.org/sonnet.git", "branch": "v5.66.0" } ]
        },
        {
            "name": "kcompletion",
            "config-opts": [ "-DENABLE_TESTING=OFF" ],
            "buildsystem": "cmake-ninja",
            "sources": [ { "type": "git", "url": "git://anongit.kde.org/kcompletion.git", "branch": "v5.66.0" } ]
        },
        {
            "name": "ktextwidgets",
            "config-opts": [ "-DENABLE_TESTING=OFF" ],
            "buildsystem": "cmake-ninja",
            "sources": [ { "type": "git", "url": "git://anongit.kde.org/ktextwidgets.git", "branch": "v5.66.0" } ]
        },
        {
            "name": "kxmlgui",
            "config-opts": [ "-DENABLE_TESTING=OFF" ],
            "buildsystem": "cmake-ninja",
            "sources": [ { "type": "git", "url": "git://anongit.kde.org/kxmlgui.git", "branch": "v5.66.0" } ]
        },
        {
            "name": "perl-uri-escape",
            "cleanup-platform": ["*"],
            "sources": [{
                    "type": "archive",
                    "url": "https://cpan.metacpan.org/authors/id/E/ET/ETHER/URI-1.74.tar.gz",
                    "sha256": "a9c254f45f89cb1dd946b689dfe433095404532a4543bdaab0b71ce0fdcdd53d"
                },
                {
                    "type": "script",
                    "commands": [ "perl Makefile.PL INSTALLDIRS=vendor"],
                    "dest-filename": "configure"
                }
            ]
        },
        {
            "name": "kdoctools",
            "config-opts": [ "-DENABLE_TESTING=OFF", "-DDocBookXSL_DIR=/usr/share/xml/docbook/xml/xsl-stylesheets/", "-DDTD_PATH_LIST=/usr/share/xml/docbook/xml-dtd/4.5/" ],
            "buildsystem": "cmake-ninja",
            "sources": [ { "type": "git", "url": "git://anongit.kde.org/kdoctools.git", "branch": "v5.66.0" } ]
        },
        {
            "name": "kpackage",
            "config-opts": [ "-DENABLE_TESTING=OFF" ],
            "buildsystem": "cmake-ninja",
            "sources": [ { "type": "git", "url": "git://anongit.kde.org/kpackage.git", "branch": "v5.66.0" } ]
        },
        {
            "name": "kbookmarks",
            "config-opts": [ "-DENABLE_TESTING=OFF" ],
            "buildsystem": "cmake-ninja",
            "sources": [ { "type": "git", "url": "git://anongit.kde.org/kbookmarks.git", "branch": "v5.66.0" } ]
        },
        {
            "name": "phonon",
            "config-opts": ["-DENABLE_TESTING=OFF", "-DPHONON_BUILD_PHONON4QT5=ON"],
            "buildsystem": "cmake-ninja",
            "sources": [ { "type": "git", "url": "git://anongit.kde.org/phonon.git", "branch": "v4.11.1" } ]
        },
        {
            "name": "knotifications",
            "buildsystem": "cmake-ninja",
            "config-opts": [ "-DENABLE_TESTING=OFF" ],
            "sources": [ { "type": "git", "url": "git://anongit.kde.org/knotifications.git", "branch": "v5.66.0" } ]
        },
        {
            "name": "kwallet",
            "config-opts": [ "-DENABLE_TESTING=OFF" ],
            "buildsystem": "cmake-ninja",
            "sources": [ { "type": "git", "url": "git://anongit.kde.org/kwallet.git", "branch": "v5.66.0" } ]
        },
        {
            "name": "kjobwidgets",
            "config-opts": [ "-DENABLE_TESTING=OFF" ],
            "buildsystem": "cmake-ninja",
            "sources": [ { "type": "git", "url": "git://anongit.kde.org/kjobwidgets.git", "branch": "v5.66.0" } ]
        },
        "udev/udev-175.json",
        {
            "name": "solid",
            "config-opts": [ "-DENABLE_TESTING=OFF" ],
            "buildsystem": "cmake-ninja",
            "sources": [ { "type": "git", "url": "git://anongit.kde.org/solid.git", "branch": "v5.66.0" } ]
        },
        {
            "name": "kio",
            "buildsystem": "cmake-ninja",
            "config-opts": [ "-DENABLE_TESTING=OFF" ],
            "sources": [ { "type": "git", "url": "git://anongit.kde.org/kio.git", "branch": "v5.66.0" } ]
        },
        {
            "name": "kparts",
            "config-opts": [ "-DENABLE_TESTING=OFF" ],
            "buildsystem": "cmake-ninja",
            "sources": [ { "type": "git", "url": "git://anongit.kde.org/kparts.git", "branch": "v5.66.0" } ]
        },
        {
            "name": "kplotting",
            "config-opts": [ "-DENABLE_TESTING=OFF" ],
            "buildsystem": "cmake-ninja",
            "sources": [ { "type": "git", "url": "git://anongit.kde.org/kplotting.git", "branch": "v5.66.0" } ]
        },
        {
            "name": "kdesignerplugin",
            "buildsystem": "cmake-ninja",
            "builddir": true,
            "config-opts": [ "-DENABLE_TESTING=OFF" ],
            "sources": [ { "type": "git", "url": "git://anongit.kde.org/kdesignerplugin.git", "branch": "v5.66.0" } ]
        },
        {
            "name": "kinit",
            "config-opts": [ "-DENABLE_TESTING=OFF" ],
            "buildsystem": "cmake-ninja",
            "sources": [ { "type": "git", "url": "git://anongit.kde.org/kinit.git", "branch": "v5.66.0" } ]
        },
        {
            "name": "kded",
            "config-opts": [ "-DENABLE_TESTING=OFF" ],
            "buildsystem": "cmake-ninja",
            "sources": [ { "type": "git", "url": "git://anongit.kde.org/kded.git", "branch": "v5.66.0" } ]
        },
        {
            "name": "kunitconversion",
            "config-opts": [ "-DENABLE_TESTING=OFF" ],
            "buildsystem": "cmake-ninja",
            "sources": [ { "type": "git", "url": "git://anongit.kde.org/kunitconversion.git", "branch": "v5.66.0" } ]
        },
        {
            "name": "kdeclarative",
            "config-opts": [ "-DENABLE_TESTING=OFF" ],
            "buildsystem": "cmake-ninja",
            "sources": [ { "type": "git", "url": "git://anongit.kde.org/kdeclarative.git", "branch": "v5.66.0" } ]
        },
        {
            "name": "kcmutils",
            "config-opts": [ "-DENABLE_TESTING=OFF" ],
            "buildsystem": "cmake-ninja",
            "sources": [ { "type": "git", "url": "git://anongit.kde.org/kcmutils.git", "branch": "v5.66.0" } ]
        },
        {
            "name": "knotifyconfig",
            "config-opts": [ "-DENABLE_TESTING=OFF" ],
            "buildsystem": "cmake-ninja",
            "builddir": true,
            "sources": [ { "type": "git", "url": "git://anongit.kde.org/knotifyconfig.git", "branch": "v5.66.0" } ]
        },
        {
            "name": "knewstuff",
            "config-opts": [ "-DENABLE_TESTING=OFF" ],
            "buildsystem": "cmake-ninja",
            "sources": [ { "type": "git", "url": "git://anongit.kde.org/knewstuff.git", "branch": "v5.66.0" } ]
        },
        {
            "name": "kidletime",
            "config-opts": [ "-DENABLE_TESTING=OFF" ],
            "buildsystem": "cmake-ninja",
            "sources": [ { "type": "git", "url": "git://anongit.kde.org/kidletime.git", "branch": "v5.66.0" } ]
        },
        {
            "name": "threadweaver",
            "config-opts": [ "-DENABLE_TESTING=OFF" ],
            "buildsystem": "cmake-ninja",
            "sources": [ { "type": "git", "url": "git://anongit.kde.org/threadweaver.git", "branch": "v5.66.0" } ]
        },
        {
            "name": "kitemmodels",
            "config-opts": [ "-DENABLE_TESTING=OFF" ],
            "buildsystem": "cmake-ninja",
            "sources": [ { "type": "git", "url": "git://anongit.kde.org/kitemmodels.git", "branch": "v5.66.0" } ]
        },
        {
            "name": "kxmlrpcclient",
            "buildsystem": "cmake-ninja",
            "config-opts": [ "-DENABLE_TESTING=OFF" ],
            "sources": [ { "type": "git", "url": "git://anongit.kde.org/kxmlrpcclient.git", "branch": "v5.66.0" } ]
        },
        {
            "name": "kdnssd",
            "config-opts": [ "-DENABLE_TESTING=OFF" ],
            "buildsystem": "cmake-ninja",
            "sources": [ { "type": "git", "url": "git://anongit.kde.org/kdnssd.git", "branch": "v5.66.0" } ]
        },
        {
            "config-opts": [ "-DENABLE_TESTING=OFF" ],
            "name": "syntax-highlighting",
            "buildsystem": "cmake-ninja",
            "sources": [ { "type": "git", "url": "git://anongit.kde.org/syntax-highlighting.git", "branch": "v5.66.0" } ]
        },
        {
            "config-opts": [ "-DENABLE_TESTING=OFF" ],
            "name": "ktexteditor",
            "buildsystem": "cmake-ninja",
            "sources": [ { "type": "git", "url": "git://anongit.kde.org/ktexteditor.git", "branch": "v5.66.0" } ]
        },
        {
            "name": "frameworkintegration",
            "config-opts": [ "-DENABLE_TESTING=OFF" ],
            "buildsystem": "cmake-ninja",
            "builddir": true,
            "sources": [ { "type": "git", "url": "git://anongit.kde.org/frameworkintegration.git", "branch": "v5.66.0" } ]
        },
        {
            "name": "kemoticons",
            "config-opts": [ "-DENABLE_TESTING=OFF" ],
            "buildsystem": "cmake-ninja",
            "sources": [ { "type": "git", "url": "git://anongit.kde.org/kemoticons.git", "branch": "v5.66.0" } ]
        },
        {
            "name": "kpty",
            "buildsystem": "cmake-ninja",
            "config-opts": [ "-DENABLE_TESTING=OFF" ],
            "sources": [ { "type": "git", "url": "git://anongit.kde.org/kpty.git", "branch": "v5.66.0" } ]
        },
        {
            "name": "kwayland",
            "buildsystem": "cmake-ninja",
            "config-opts": ["-DENABLE_TESTING=OFF"  ],
            "sources": [ { "type": "git", "url": "git://anongit.kde.org/kwayland.git", "branch": "v5.66.0" } ]
        },
        {
            "name": "kirigami",
            "config-opts": ["-DENABLE_TESTING=OFF", "-DPLASMA_ENABLED=OFF"],
            "buildsystem": "cmake-ninja",
            "builddir": true,
            "sources": [ { "type": "git", "url": "git://anongit.kde.org/kirigami.git", "branch": "v5.66.0" } ]
        },
        {
            "name": "qqc2-desktop-style",
            "config-opts": [ "-DENABLE_TESTING=OFF" ],
            "buildsystem": "cmake-ninja",
            "builddir": true,
            "sources": [ { "type": "git", "url": "git://anongit.kde.org/qqc2-desktop-style.git", "branch": "v5.66.0" } ]
        },
        {
            "name": "kactivities",
            "config-opts": [ "-DENABLE_TESTING=OFF", "-DKACTIVITIES_LIBRARY_ONLY=ON" ],
            "buildsystem": "cmake-ninja",
            "builddir": true,
            "sources": [ { "type": "git", "url": "git://anongit.kde.org/kactivities.git", "branch": "v5.66.0" } ]
        },
        {
            "name": "plasma-framework",
            "config-opts": [ "-DENABLE_TESTING=OFF" ],
            "buildsystem": "cmake-ninja",
            "builddir": true,
            "sources": [ { "type": "git", "url": "git://anongit.kde.org/plasma-framework.git", "branch": "v5.66.0" } ]
        },
        {
            "name": "breeze-icons",
            "cleanup-platform": [ "*.rcc" ],
            "config-opts": [ "-DENABLE_TESTING=OFF" ],
            "buildsystem": "cmake-ninja",
            "sources": [ { "type": "git", "url": "git://anongit.kde.org/breeze-icons.git", "branch": "v5.66.0" } ]
        },

        {
            "name": "breeze",
            "buildsystem": "cmake-ninja",
            "config-opts": ["-DENABLE_TESTING=OFF", "-DWITH_DECORATIONS=OFF", "-DWITH_WALLPAPERS=OFF" ],
            "sources": [ { "type": "git", "url": "git://anongit.kde.org/breeze.git", "branch": "Plasma/5.17" } ]
        },
        {
            "name": "plasma-integration",
            "buildsystem": "cmake-ninja",
            "config-opts": [ "-DENABLE_TESTING=OFF", "-DBUILD_TESTING=OFF" ],
            "sources": [ { "type": "git", "url": "git://anongit.kde.org/plasma-integration.git", "branch": "Plasma/5.17" } ]
        },
        {
            "name": "kwayland-integration",
            "buildsystem": "cmake-ninja",
            "config-opts": [ "-DENABLE_TESTING=OFF" ],
            "sources": [
                {
                    "type": "git",
                    "url": "git://anongit.kde.org/kwayland-integration.git",
                    "branch": "Plasma/5.17"
                }
            ]
        },
        {
            "name": "phonon-gstreamer",
            "buildsystem": "cmake-ninja",
            "config-opts": ["-DENABLE_TESTING=OFF", "-DPHONON_BUILD_PHONON4QT5=ON"],
            "sources": [ { "type": "git", "url": "git://anongit.kde.org/phonon-gstreamer.git", "branch": "v4.10.0" } ]
        },
        {
            "name": "fcitx-platforminputcontext",
            "buildsystem": "cmake-ninja",
            "config-opts": ["-DENABLE_LIBRARY=OFF" ],
            "sources": [ { "type": "git", "url": "https://github.com/fcitx/fcitx-qt5", "branch": "1.2.4" } ]
        },
        {
            "name": "os-release",
            "post-install": [
                "mkdir -p /usr/share/runtime/lib/plugins/"
            ],
            "sources": [
                {
                    "type": "file",
                    "path": "os-release"
                },
                {
                    "type": "file",
                    "path": "issue"
                },
                {
                    "type": "file",
                    "path": "issue.net"
                },
                {
                    "type": "file",
                    "path": "org.kde.Sdk.appdata.xml"
                },
                {
                    "type": "file",
                    "path": "org.kde.Platform.appdata.xml"
                },
                {
                    "type": "file",
                    "path": "os-release-configure",
                    "dest-filename": "configure"
                }
            ]
        }
    ]
}
